<?xml version="1.0" encoding="UTF-8" standalone="no"?>
<!-- Created with Inkscape (http://www.inkscape.org/) -->

<svg
   xmlns:dc="http://purl.org/dc/elements/1.1/"
   xmlns:cc="http://creativecommons.org/ns#"
   xmlns:rdf="http://www.w3.org/1999/02/22-rdf-syntax-ns#"
   xmlns:svg="http://www.w3.org/2000/svg"
   xmlns="http://www.w3.org/2000/svg"
   xmlns:sodipodi="http://sodipodi.sourceforge.net/DTD/sodipodi-0.dtd"
   xmlns:inkscape="http://www.inkscape.org/namespaces/inkscape"
   width="95.524307mm"
   height="105.31857mm"
   viewBox="0 0 95.524307 105.31857"
   version="1.1"
   id="svg8"
   sodipodi:docname="logo.svg"
   inkscape:version="0.92.4 5da689c313, 2019-01-14">
  <defs
     id="defs2" />
  <sodipodi:namedview
     id="base"
     pagecolor="#ffffff"
     bordercolor="#666666"
     borderopacity="1.0"
     inkscape:pageopacity="0.0"
     inkscape:pageshadow="2"
     inkscape:zoom="1.4142136"
     inkscape:cx="166.83912"
     inkscape:cy="189.29968"
     inkscape:document-units="mm"
     inkscape:current-layer="layer1"
     showgrid="false"
     inkscape:snap-bbox="false"
     inkscape:object-paths="false"
     inkscape:snap-smooth-nodes="true"
     inkscape:window-width="1920"
     inkscape:window-height="1019"
     inkscape:window-x="0"
     inkscape:window-y="0"
     inkscape:window-maximized="1"
     fit-margin-top="0"
     fit-margin-left="0"
     fit-margin-right="0"
     fit-margin-bottom="0" />
  <metadata
     id="metadata5">
    <rdf:RDF>
      <cc:Work
         rdf:about="">
        <dc:format>image/svg+xml</dc:format>
        <dc:type
           rdf:resource="http://purl.org/dc/dcmitype/StillImage" />
        <dc:title></dc:title>
      </cc:Work>
    </rdf:RDF>
  </metadata>
  <g
     inkscape:label="Capa 1"
     inkscape:groupmode="layer"
     id="layer1"
     transform="translate(-56.766618,-54.328614)">
    <g
       id="g4666">
      <path
         sodipodi:nodetypes="ccssccssc"
         inkscape:connector-curvature="0"
         id="rect4624"
         d="m 64.755414,54.461114 h 87.292636 c 0,0 -3.21008,4.986648 -3.87303,7.817948 -6.81382,29.101585 6.99929,60.604418 0,89.661998 -0.6639,2.75633 -3.87294,7.57363 -3.87294,7.57363 H 57.009492 c 0,0 3.210036,-4.9866 3.872937,-7.81788 6.925295,-29.57739 -8.470807,-61.954903 0,-91.127922 0.672151,-2.3147 3.872985,-6.107774 3.872985,-6.107774 z"
         style="fill:#0097fe;fill-opacity:1;stroke:#ffffff;stroke-width:0.26500002;stroke-linecap:round;stroke-miterlimit:4;stroke-dasharray:none;stroke-dashoffset:0;stroke-opacity:1;paint-order:stroke fill markers" />
      <path
         sodipodi:nodetypes="cc"
         inkscape:connector-curvature="0"
         id="path4548"
         d="M 138.71241,125.01971 C 121.90922,27.979245 103.354,48.027651 82.28078,136.26997"
         style="fill:none;fill-rule:evenodd;stroke:#000000;stroke-width:0.565;stroke-linecap:butt;stroke-linejoin:miter;stroke-miterlimit:4;stroke-dasharray:none;stroke-opacity:1" />
      <path
         sodipodi:nodetypes="ccczaacczzczzcccccssscczcccczz"
         inkscape:connector-curvature="0"
         id="path4518-3"
         d="M 76.963842,136.28635 C 66.911379,121.99674 66.169615,102.55842 73.942286,86.828597 c 8.53036,-1.28982 11.498752,1.86458 13.747933,5.59365 -8.658049,17.521643 -5.768663,32.032033 0.316598,41.013343 6.085309,8.98131 12.770153,10.10131 20.474923,11.4096 5.92253,1.00571 12.75213,0.23717 17.75624,-3.08263 5.12173,-3.39799 10.16055,-9.31396 9.95795,-15.50861 -0.0882,-2.69541 -0.3514,-3.70983 -1.03838,-6.66869 -3.58905,2.87547 -6.7072,2.39177 -8.45865,2.2047 -1.75144,-0.18715 -2.72026,-0.66286 -4.15358,-1.86663 -1.43327,-1.20376 -2.06614,-2.90819 -1.88052,-4.89249 0.20741,-2.45749 1.87632,-4.21822 3.78583,-5.50608 1.90955,-1.28782 4.60259,-1.72096 6.9116,-0.7684 2.30898,0.9526 5.53403,3.48706 7.05432,6.00784 1.3856,-1.18224 1.64259,-1.42569 2.59944,-2.31177 0.18786,-0.17096 0.83622,0.23479 0.75893,0.76478 -1.5334,1.54118 -1.03786,1.08414 -2.80537,2.70989 1.25476,2.60612 1.97888,5.46083 2.07515,8.40474 0.21361,6.53001 -2.16646,13.36281 -6.27041,18.23993 -6.84623,8.13614 -16.59559,11.50947 -26.34891,11.09205 -9.75336,-0.41717 -19.536094,-4.59847 -26.582401,-11.59452 -1.818484,-1.80553 -3.443194,-3.74102 -4.879233,-5.78238 z M 123.24527,117.8123 c 0.56534,1.01956 1.62514,1.99293 3.59157,2.30938 2.68584,0.29241 4.39227,0.48638 7.77372,-2.33176 -1.22954,-2.75765 -1.50947,-3.88556 -2.46241,-4.98012 -1.42068,-1.30455 -3.14237,-2.29149 -5.5447,-1.55485 -1.9251,0.38384 -3.63034,2.27114 -3.90455,3.69874 -0.27416,1.42754 -0.0191,1.83905 0.54637,2.85861 z"
         style="color:#000000;font-style:normal;font-variant:normal;font-weight:normal;font-stretch:normal;font-size:medium;line-height:normal;font-family:sans-serif;font-variant-ligatures:normal;font-variant-position:normal;font-variant-caps:normal;font-variant-numeric:normal;font-variant-alternates:normal;font-feature-settings:normal;text-indent:0;text-align:start;text-decoration:none;text-decoration-line:none;text-decoration-style:solid;text-decoration-color:#000000;letter-spacing:normal;word-spacing:normal;text-transform:none;writing-mode:lr-tb;direction:ltr;text-orientation:mixed;dominant-baseline:auto;baseline-shift:baseline;text-anchor:start;white-space:normal;shape-padding:0;clip-rule:nonzero;display:inline;overflow:visible;visibility:visible;opacity:1;isolation:auto;mix-blend-mode:normal;color-interpolation:sRGB;color-interpolation-filters:linearRGB;solid-color:#000000;solid-opacity:1;vector-effect:none;fill:#000000;fill-opacity:1;fill-rule:evenodd;stroke:none;stroke-width:0.26458335px;stroke-linecap:butt;stroke-linejoin:miter;stroke-miterlimit:4;stroke-dasharray:none;stroke-dashoffset:0;stroke-opacity:1;color-rendering:auto;image-rendering:auto;shape-rendering:auto;text-rendering:auto;enable-background:accumulate" />
      <path
         sodipodi:nodetypes="cccccc"
         inkscape:connector-curvature="0"
         id="path4542"
         d="m 73.624877,87.488747 c 2.744438,3.93645 7.108102,6.21625 13.751843,5.59527 0.313737,-0.66177 0.313737,-0.66177 0.313737,-0.66177 -6.366194,0.61698 -11.220346,-1.93764 -13.747933,-5.59365 l -0.317074,0.66012 z"
         style="color:#000000;font-style:normal;font-variant:normal;font-weight:normal;font-stretch:normal;font-size:medium;line-height:normal;font-family:sans-serif;font-variant-ligatures:normal;font-variant-position:normal;font-variant-caps:normal;font-variant-numeric:normal;font-variant-alternates:normal;font-feature-settings:normal;text-indent:0;text-align:start;text-decoration:none;text-decoration-line:none;text-decoration-style:solid;text-decoration-color:#000000;letter-spacing:normal;word-spacing:normal;text-transform:none;writing-mode:lr-tb;direction:ltr;text-orientation:mixed;dominant-baseline:auto;baseline-shift:baseline;text-anchor:start;white-space:normal;shape-padding:0;clip-rule:nonzero;display:inline;overflow:visible;visibility:visible;opacity:1;isolation:auto;mix-blend-mode:normal;color-interpolation:sRGB;color-interpolation-filters:linearRGB;solid-color:#000000;solid-opacity:1;vector-effect:none;fill:#ffffff;fill-opacity:1;fill-rule:evenodd;stroke:none;stroke-width:0.26500002;stroke-linecap:round;stroke-linejoin:miter;stroke-miterlimit:4;stroke-dasharray:none;stroke-dashoffset:0;stroke-opacity:1;color-rendering:auto;image-rendering:auto;shape-rendering:auto;text-rendering:auto;enable-background:accumulate" />
      <path
         sodipodi:nodetypes="ccccccc"
         inkscape:connector-curvature="0"
         id="path4544"
         d="m 87.6536,132.91397 c -0.867688,0.99371 -2.777336,2.08618 -4.751544,2.62894 -2.290615,0.44003 -4.335866,0.5789 -6.40429,0.0676 0.343299,0.50552 0.686931,1.01089 1.055978,1.49079 1.786299,0.36908 3.812144,0.17573 5.683458,-0.33908 2.15115,-0.59143 3.984748,-1.52698 5.124691,-2.83251 z"
         style="color:#000000;font-style:normal;font-variant:normal;font-weight:normal;font-stretch:normal;font-size:medium;line-height:normal;font-family:sans-serif;font-variant-ligatures:normal;font-variant-position:normal;font-variant-caps:normal;font-variant-numeric:normal;font-variant-alternates:normal;font-feature-settings:normal;text-indent:0;text-align:start;text-decoration:none;text-decoration-line:none;text-decoration-style:solid;text-decoration-color:#000000;letter-spacing:normal;word-spacing:normal;text-transform:none;writing-mode:lr-tb;direction:ltr;text-orientation:mixed;dominant-baseline:auto;baseline-shift:baseline;text-anchor:start;white-space:normal;shape-padding:0;clip-rule:nonzero;display:inline;overflow:visible;visibility:visible;opacity:1;isolation:auto;mix-blend-mode:normal;color-interpolation:sRGB;color-interpolation-filters:linearRGB;solid-color:#000000;solid-opacity:1;vector-effect:none;fill:#ffffff;fill-opacity:1;fill-rule:evenodd;stroke:none;stroke-width:0.26500002;stroke-linecap:round;stroke-linejoin:miter;stroke-miterlimit:4;stroke-dasharray:none;stroke-dashoffset:0;stroke-opacity:1;paint-order:stroke fill markers;color-rendering:auto;image-rendering:auto;shape-rendering:auto;text-rendering:auto;enable-background:accumulate" />
      <path
         sodipodi:nodetypes="ccccccccc"
         inkscape:connector-curvature="0"
         id="path4546"
         d="m 141.01289,123.68779 c -0.49735,0.0191 -0.66681,0.0381 -1.07123,0.1262 -0.46441,0.10286 -0.99271,0.26002 -1.52725,0.45575 -0.8284,0.30383 -1.65251,0.64196 -2.25524,1.13166 0.0191,0.31765 0.0429,0.8876 0.0334,1.51618 0.76279,-0.74668 1.79578,-1.06852 2.64898,-1.4666 0.48567,-0.17811 0.97459,-0.32193 1.36895,-0.40908 0.39432,-0.0872 0.8767,-0.10096 0.84084,-0.10763 0.0143,-0.47751 -0.0238,-0.90603 -0.0381,-1.24648 z"
         style="color:#000000;font-style:normal;font-variant:normal;font-weight:normal;font-stretch:normal;font-size:medium;line-height:normal;font-family:sans-serif;font-variant-ligatures:normal;font-variant-position:normal;font-variant-caps:normal;font-variant-numeric:normal;font-variant-alternates:normal;font-feature-settings:normal;text-indent:0;text-align:start;text-decoration:none;text-decoration-line:none;text-decoration-style:solid;text-decoration-color:#000000;letter-spacing:normal;word-spacing:normal;text-transform:none;writing-mode:lr-tb;direction:ltr;text-orientation:mixed;dominant-baseline:auto;baseline-shift:baseline;text-anchor:start;white-space:normal;shape-padding:0;clip-rule:nonzero;display:inline;overflow:visible;visibility:visible;opacity:1;isolation:auto;mix-blend-mode:normal;color-interpolation:sRGB;color-interpolation-filters:linearRGB;solid-color:#000000;solid-opacity:1;vector-effect:none;fill:#ffffff;fill-opacity:1;fill-rule:evenodd;stroke:none;stroke-width:0.26500002;stroke-linecap:round;stroke-linejoin:miter;stroke-miterlimit:4;stroke-dasharray:none;stroke-dashoffset:0;stroke-opacity:1;color-rendering:auto;image-rendering:auto;shape-rendering:auto;text-rendering:auto;enable-background:accumulate" />
    </g>
  </g>
</svg>
